MCC_S8/simulation/qsim/MCC_S8.msim.vcd
$comment
	File created using the following command:
		vcd file MCC_S8.msim.vcd -direction
$end
$date
	Thu Apr 04 10:49:07 2024
$end
$version
	ModelSim Version 10.5b
$end
$timescale
	1ps
$end

$scope module mcc_s8_vhd_vec_tst $end
$var wire 1 ! A [7] $end
$var wire 1 " A [6] $end
$var wire 1 # A [5] $end
$var wire 1 $ A [4] $end
$var wire 1 % A [3] $end
$var wire 1 & A [2] $end
$var wire 1 ' A [1] $end
$var wire 1 ( A [0] $end
$var wire 1 ) B [7] $end
$var wire 1 * B [6] $end
$var wire 1 + B [5] $end
$var wire 1 , B [4] $end
$var wire 1 - B [3] $end
$var wire 1 . B [2] $end
$var wire 1 / B [1] $end
$var wire 1 0 B [0] $end
$var wire 1 1 Ci $end
$var wire 1 2 Cout $end
$var wire 1 3 S [7] $end
$var wire 1 4 S [6] $end
$var wire 1 5 S [5] $end
$var wire 1 6 S [4] $end
$var wire 1 7 S [3] $end
$var wire 1 8 S [2] $end
$var wire 1 9 S [1] $end
$var wire 1 : S [0] $end

$scope module i1 $end
$var wire 1 ; gnd $end
$var wire 1 < vcc $end
$var wire 1 = unknown $end
$var wire 1 > devoe $end
$var wire 1 ? devclrn $end
$var wire 1 @ devpor $end
$var wire 1 A ww_devoe $end
$var wire 1 B ww_devclrn $end
$var wire 1 C ww_devpor $end
$var wire 1 D ww_A [7] $end
$var wire 1 E ww_A [6] $end
$var wire 1 F ww_A [5] $end
$var wire 1 G ww_A [4] $end
$var wire 1 H ww_A [3] $end
$var wire 1 I ww_A [2] $end
$var wire 1 J ww_A [1] $end
$var wire 1 K ww_A [0] $end
$var wire 1 L ww_B [7] $end
$var wire 1 M ww_B [6] $end
$var wire 1 N ww_B [5] $end
$var wire 1 O ww_B [4] $end
$var wire 1 P ww_B [3] $end
$var wire 1 Q ww_B [2] $end
$var wire 1 R ww_B [1] $end
$var wire 1 S ww_B [0] $end
$var wire 1 T ww_Ci $end
$var wire 1 U ww_S [7] $end
$var wire 1 V ww_S [6] $end
$var wire 1 W ww_S [5] $end
$var wire 1 X ww_S [4] $end
$var wire 1 Y ww_S [3] $end
$var wire 1 Z ww_S [2] $end
$var wire 1 [ ww_S [1] $end
$var wire 1 \ ww_S [0] $end
$var wire 1 ] ww_Cout $end
$var wire 1 ^ \Ci~combout\ $end
$var wire 1 _ \M0|S~combout\ $end
$var wire 1 ` \M0|Cout~0_combout\ $end
$var wire 1 a \M1|S~combout\ $end
$var wire 1 b \M1|Cout~0_combout\ $end
$var wire 1 c \M2|S~combout\ $end
$var wire 1 d \M2|Cout~0_combout\ $end
$var wire 1 e \M3|S~combout\ $end
$var wire 1 f \M3|Cout~0_combout\ $end
$var wire 1 g \M4|S~combout\ $end
$var wire 1 h \M4|Cout~0_combout\ $end
$var wire 1 i \M5|S~combout\ $end
$var wire 1 j \M5|Cout~0_combout\ $end
$var wire 1 k \M6|S~combout\ $end
$var wire 1 l \M6|Cout~0_combout\ $end
$var wire 1 m \M7|S~combout\ $end
$var wire 1 n \M7|Cout~0_combout\ $end
$var wire 1 o \A~combout\ [7] $end
$var wire 1 p \A~combout\ [6] $end
$var wire 1 q \A~combout\ [5] $end
$var wire 1 r \A~combout\ [4] $end
$var wire 1 s \A~combout\ [3] $end
$var wire 1 t \A~combout\ [2] $end
$var wire 1 u \A~combout\ [1] $end
$var wire 1 v \A~combout\ [0] $end
$var wire 1 w \B~combout\ [7] $end
$var wire 1 x \B~combout\ [6] $end
$var wire 1 y \B~combout\ [5] $end
$var wire 1 z \B~combout\ [4] $end
$var wire 1 { \B~combout\ [3] $end
$var wire 1 | \B~combout\ [2] $end
$var wire 1 } \B~combout\ [1] $end
$var wire 1 ~ \B~combout\ [0] $end
$upscope $end
$upscope $end
$enddefinitions $end
#0
$dumpvars
01
02
0;
1<
x=
1>
1?
1@
1A
1B
1C
0T
0]
0^
0_
0`
0a
0b
0c
0d
0e
0f
0g
0h
0i
0j
0k
0l
0m
0n
0!
0"
0#
0$
0%
0&
0'
0(
0)
0*
0+
0,
0-
0.
0/
00
0D
0E
0F
0G
0H
0I
0J
0K
0L
0M
0N
0O
0P
0Q
0R
0S
0U
0V
0W
0X
0Y
0Z
0[
0\
0o
0p
0q
0r
0s
0t
0u
0v
0w
0x
0y
0z
0{
0|
0}
0~
03
04
05
06
07
08
09
0:
$end
#10000
1(
10
1K
1S
1~
1v
1`
1a
1[
19
#20000
0(
00
1'
1/
0K
1J
0S
1R
1}
0~
1u
0v
0`
1b
1c
0a
0[
1Z
09
18
#30000
1(
10
1K
1S
1~
1v
1`
1a
1[
19
#40000
0(
00
0'
0/
1&
1.
0K
0J
1I
0S
0R
1Q
1|
0}
0~
1t
0u
0v
0`
0b
1d
1e
0c
0a
0[
0Z
1Y
09
08
17
#50000
1(
10
1K
1S
1~
1v
1`
1a
1[
19
#60000
0(
00
1'
1/
0K
1J
0S
1R
1}
0~
1u
0v
0`
1b
1c
0a
0[
1Z
09
18
#70000
1(
10
1K
1S
1~
1v
1`
1a
1[
19
#80000
0(
00
0'
0/
0&
0.
1%
1-
0K
0J
0I
1H
0S
0R
0Q
1P
1{
0|
0}
0~
1s
0t
0u
0v
0`
0b
0d
1f
1g
0e
0c
0a
0[
0Z
0Y
1X
09
08
07
16
#90000
1(
10
1K
1S
1~
1v
1`
1a
1[
19
#100000
0(
00
1'
1/
0K
1J
0S
1R
1}
0~
1u
0v
0`
1b
1c
0a
0[
1Z
09
18
#110000
1(
10
1K
1S
1~
1v
1`
1a
1[
19
#120000
0(
00
0'
0/
1&
1.
0K
0J
1I
0S
0R
1Q
1|
0}
0~
1t
0u
0v
0`
0b
1d
1e
0c
0a
0[
0Z
1Y
09
08
17
#130000
1(
10
1K
1S
1~
1v
1`
1a
1[
19
#140000
0(
00
1'
1/
0K
1J
0S
1R
1}
0~
1u
0v
0`
1b
1c
0a
0[
1Z
09
18
#150000
1(
10
1K
1S
1~
1v
1`
1a
1[
19
#160000
0(
00
0'
0/
0&
0.
0%
0-
1$
1,
0K
0J
0I
0H
1G
0S
0R
0Q
0P
1O
1z
0{
0|
0}
0~
1r
0s
0t
0u
0v
0`
0b
0d
0f
1h
1i
0g
0e
0c
0a
0[
0Z
0Y
0X
1W
09
08
07
06
15
#170000
1(
10
1K
1S
1~
1v
1`
1a
1[
19
#180000
0(
00
1'
1/
0K
1J
0S
1R
1}
0~
1u
0v
0`
1b
1c
0a
0[
1Z
09
18
#190000
1(
10
1K
1S
1~
1v
1`
1a
1[
19
#200000
0(
00
0'
0/
1&
1.
0K
0J
1I
0S
0R
1Q
1|
0}
0~
1t
0u
0v
0`
0b
1d
1e
0c
0a
0[
0Z
1Y
09
08
17
#210000
1(
10
1K
1S
1~
1v
1`
1a
1[
19
#220000
0(
00
1'
1/
0K
1J
0S
1R
1}
0~
1u
0v
0`
1b
1c
0a
0[
1Z
09
18
#230000
1(
10
1K
1S
1~
1v
1`
1a
1[
19
#240000
0(
00
0'
0/
0&
0.
1%
1-
0K
0J
0I
1H
0S
0R
0Q
1P
1{
0|
0}
0~
1s
0t
0u
0v
0`
0b
0d
1f
1g
0e
0c
0a
0[
0Z
0Y
1X
09
08
07
16
#250000
1(
10
1K
1S
1~
1v
1`
1a
1[
19
#260000
0(
00
1'
1/
0K
1J
0S
1R
1}
0~
1u
0v
0`
1b
1c
0a
0[
1Z
09
18
#270000
1(
10
1K
1S
1~
1v
1`
1a
1[
19
#280000
0(
00
0'
0/
1&
1.
0K
0J
1I
0S
0R
1Q
1|
0}
0~
1t
0u
0v
0`
0b
1d
1e
0c
0a
0[
0Z
1Y
09
08
17
#290000
1(
10
1K
1S
1~
1v
1`
1a
1[
19
#300000
0(
00
1'
1/
0K
1J
0S
1R
1}
0~
1u
0v
0`
1b
1c
0a
0[
1Z
09
18
#310000
1(
10
1K
1S
1~
1v
1`
1a
1[
19
#320000
0(
00
0'
0/
0&
0.
0%
0-
0$
0,
1#
1+
0K
0J
0I
0H
0G
1F
0S
0R
0Q
0P
0O
1N
1y
0z
0{
0|
0}
0~
1q
0r
0s
0t
0u
0v
0`
0b
0d
0f
0h
1j
1k
0i
0g
0e
0c
0a
0[
0Z
0Y
0X
0W
1V
09
08
07
06
05
14
#330000
1(
10
1K
1S
1~
1v
1`
1a
1[
19
#340000
0(
00
1'
1/
0K
1J
0S
1R
1}
0~
1u
0v
0`
1b
1c
0a
0[
1Z
09
18
#350000
1(
10
1K
1S
1~
1v
1`
1a
1[
19
#360000
0(
00
0'
0/
1&
1.
0K
0J
1I
0S
0R
1Q
1|
0}
0~
1t
0u
0v
0`
0b
1d
1e
0c
0a
0[
0Z
1Y
09
08
17
#370000
1(
10
1K
1S
1~
1v
1`
1a
1[
19
#380000
0(
00
1'
1/
0K
1J
0S
1R
1}
0~
1u
0v
0`
1b
1c
0a
0[
1Z
09
18
#390000
1(
10
1K
1S
1~
1v
1`
1a
1[
19
#400000
0(
00
0'
0/
0&
0.
1%
1-
0K
0J
0I
1H
0S
0R
0Q
1P
1{
0|
0}
0~
1s
0t
0u
0v
0`
0b
0d
1f
1g
0e
0c
0a
0[
0Z
0Y
1X
09
08
07
16
#410000
1(
10
1K
1S
1~
1v
1`
1a
1[
19
#420000
0(
00
1'
1/
0K
1J
0S
1R
1}
0~
1u
0v
0`
1b
1c
0a
0[
1Z
09
18
#430000
1(
10
1K
1S
1~
1v
1`
1a
1[
19
#440000
0(
00
0'
0/
1&
1.
0K
0J
1I
0S
0R
1Q
1|
0}
0~
1t
0u
0v
0`
0b
1d
1e
0c
0a
0[
0Z
1Y
09
08
17
#450000
1(
10
1K
1S
1~
1v
1`
1a
1[
19
#460000
0(
00
1'
1/
0K
1J
0S
1R
1}
0~
1u
0v
0`
1b
1c
0a
0[
1Z
09
18
#470000
1(
10
1K
1S
1~
1v
1`
1a
1[
19
#480000
0(
00
0'
0/
0&
0.
0%
0-
1$
1,
0K
0J
0I
0H
1G
0S
0R
0Q
0P
1O
1z
0{
0|
0}
0~
1r
0s
0t
0u
0v
0`
0b
0d
0f
1h
1i
0g
0e
0c
0a
0[
0Z
0Y
0X
1W
09
08
07
06
15
#490000
1(
10
1K
1S
1~
1v
1`
1a
1[
19
#500000
0(
00
1'
1/
0K
1J
0S
1R
1}
0~
1u
0v
0`
1b
1c
0a
0[
1Z
09
18
#510000
1(
10
1K
1S
1~
1v
1`
1a
1[
19
#520000
0(
00
0'
0/
1&
1.
0K
0J
1I
0S
0R
1Q
1|
0}
0~
1t
0u
0v
0`
0b
1d
1e
0c
0a
0[
0Z
1Y
09
08
17
#530000
1(
10
1K
1S
1~
1v
1`
1a
1[
19
#540000
0(
00
1'
1/
0K
1J
0S
1R
1}
0~
1u
0v
0`
1b
1c
0a
0[
1Z
09
18
#550000
1(
10
1K
1S
1~
1v
1`
1a
1[
19
#560000
0(
00
0'
0/
0&
0.
1%
1-
0K
0J
0I
1H
0S
0R
0Q
1P
1{
0|
0}
0~
1s
0t
0u
0v
0`
0b
0d
1f
1g
0e
0c
0a
0[
0Z
0Y
1X
09
08
07
16
#570000
1(
10
1K
1S
1~
1v
1`
1a
1[
19
#580000
0(
00
1'
1/
0K
1J
0S
1R
1}
0~
1u
0v
0`
1b
1c
0a
0[
1Z
09
18
#590000
1(
10
1K
1S
1~
1v
1`
1a
1[
19
#600000
0(
00
0'
0/
1&
1.
0K
0J
1I
0S
0R
1Q
1|
0}
0~
1t
0u
0v
0`
0b
1d
1e
0c
0a
0[
0Z
1Y
09
08
17
#610000
1(
10
1K
1S
1~
1v
1`
1a
1[
19
#620000
0(
00
1'
1/
0K
1J
0S
1R
1}
0~
1u
0v
0`
1b
1c
0a
0[
1Z
09
18
#630000
1(
10
1K
1S
1~
1v
1`
1a
1[
19
#640000
0(
00
0'
0/
0&
0.
0%
0-
0$
0,
0#
0+
1"
1*
0K
0J
0I
0H
0G
0F
1E
0S
0R
0Q
0P
0O
0N
1M
1x
0y
0z
0{
0|
0}
0~
1p
0q
0r
0s
0t
0u
0v
0`
0b
0d
0f
0h
0j
1l
1m
0k
0i
0g
0e
0c
0a
0[
0Z
0Y
0X
0W
0V
1U
09
08
07
06
05
04
13
#650000
1(
10
1K
1S
1~
1v
1`
1a
1[
19
#660000
0(
00
1'
1/
0K
1J
0S
1R
1}
0~
1u
0v
0`
1b
1c
0a
0[
1Z
09
18
#670000
1(
10
1K
1S
1~
1v
1`
1a
1[
19
#680000
0(
00
0'
0/
1&
1.
0K
0J
1I
0S
0R
1Q
1|
0}
0~
1t
0u
0v
0`
0b
1d
1e
0c
0a
0[
0Z
1Y
09
08
17
#690000
1(
10
1K
1S
1~
1v
1`
1a
1[
19
#700000
0(
00
1'
1/
0K
1J
0S
1R
1}
0~
1u
0v
0`
1b
1c
0a
0[
1Z
09
18
#710000
1(
10
1K
1S
1~
1v
1`
1a
1[
19
#720000
0(
00
0'
0/
0&
0.
1%
1-
0K
0J
0I
1H
0S
0R
0Q
1P
1{
0|
0}
0~
1s
0t
0u
0v
0`
0b
0d
1f
1g
0e
0c
0a
0[
0Z
0Y
1X
09
08
07
16
#730000
1(
10
1K
1S
1~
1v
1`
1a
1[
19
#740000
0(
00
1'
1/
0K
1J
0S
1R
1}
0~
1u
0v
0`
1b
1c
0a
0[
1Z
09
18
#750000
1(
10
1K
1S
1~
1v
1`
1a
1[
19
#760000
0(
00
0'
0/
1&
1.
0K
0J
1I
0S
0R
1Q
1|
0}
0~
1t
0u
0v
0`
0b
1d
1e
0c
0a
0[
0Z
1Y
09
08
17
#770000
1(
10
1K
1S
1~
1v
1`
1a
1[
19
#780000
0(
00
1'
1/
0K
1J
0S
1R
1}
0~
1u
0v
0`
1b
1c
0a
0[
1Z
09
18
#790000
1(
10
1K
1S
1~
1v
1`
1a
1[
19
#800000
0(
00
0'
0/
0&
0.
0%
0-
1$
1,
0K
0J
0I
0H
1G
0S
0R
0Q
0P
1O
1z
0{
0|
0}
0~
1r
0s
0t
0u
0v
0`
0b
0d
0f
1h
1i
0g
0e
0c
0a
0[
0Z
0Y
0X
1W
09
08
07
06
15
#810000
1(
10
1K
1S
1~
1v
1`
1a
1[
19
#820000
0(
00
1'
1/
0K
1J
0S
1R
1}
0~
1u
0v
0`
1b
1c
0a
0[
1Z
09
18
#830000
1(
10
1K
1S
1~
1v
1`
1a
1[
19
#840000
0(
00
0'
0/
1&
1.
0K
0J
1I
0S
0R
1Q
1|
0}
0~
1t
0u
0v
0`
0b
1d
1e
0c
0a
0[
0Z
1Y
09
08
17
#850000
1(
10
1K
1S
1~
1v
1`
1a
1[
19
#860000
0(
00
1'
1/
0K
1J
0S
1R
1}
0~
1u
0v
0`
1b
1c
0a
0[
1Z
09
18
#870000
1(
10
1K
1S
1~
1v
1`
1a
1[
19
#880000
0(
00
0'
0/
0&
0.
1%
1-
0K
0J
0I
1H
0S
0R
0Q
1P
1{
0|
0}
0~
1s
0t
0u
0v
0`
0b
0d
1f
1g
0e
0c
0a
0[
0Z
0Y
1X
09
08
07
16
#890000
1(
10
1K
1S
1~
1v
1`
1a
1[
19
#900000
0(
00
1'
1/
0K
1J
0S
1R
1}
0~
1u
0v
0`
1b
1c
0a
0[
1Z
09
18
#910000
1(
10
1K
1S
1~
1v
1`
1a
1[
19
#920000
0(
00
0'
0/
1&
1.
0K
0J
1I
0S
0R
1Q
1|
0}
0~
1t
0u
0v
0`
0b
1d
1e
0c
0a
0[
0Z
1Y
09
08
17
#930000
1(
10
1K
1S
1~
1v
1`
1a
1[
19
#940000
0(
00
1'
1/
0K
1J
0S
1R
1}
0~
1u
0v
0`
1b
1c
0a
0[
1Z
09
18
#950000
1(
10
1K
1S
1~
1v
1`
1a
1[
19
#960000
0(
00
0'
0/
0&
0.
0%
0-
0$
0,
1#
1+
0K
0J
0I
0H
0G
1F
0S
0R
0Q
0P
0O
1N
1y
0z
0{
0|
0}
0~
1q
0r
0s
0t
0u
0v
0`
0b
0d
0f
0h
1j
1k
0i
0g
0e
0c
0a
0[
0Z
0Y
0X
0W
1V
09
08
07
06
05
14
#970000
1(
10
1K
1S
1~
1v
1`
1a
1[
19
#980000
0(
00
1'
1/
0K
1J
0S
1R
1}
0~
1u
0v
0`
1b
1c
0a
0[
1Z
09
18
#990000
1(
10
1K
1S
1~
1v
1`
1a
1[
19
