MCC/simulation/qsim/MCC.msim.vcd
$comment
	File created using the following command:
		vcd file MCC.msim.vcd -direction
$end
$date
	Mon Apr 01 16:42:08 2024
$end
$version
	ModelSim Version 10.5b
$end
$timescale
	1ps
$end

$scope module mcc_vhd_vec_tst $end
$var wire 1 ! A $end
$var wire 1 " B $end
$var wire 1 # Ci $end
$var wire 1 $ Cout $end
$var wire 1 % S $end

$scope module i1 $end
$var wire 1 & gnd $end
$var wire 1 ' vcc $end
$var wire 1 ( unknown $end
$var wire 1 ) devoe $end
$var wire 1 * devclrn $end
$var wire 1 + devpor $end
$var wire 1 , ww_devoe $end
$var wire 1 - ww_devclrn $end
$var wire 1 . ww_devpor $end
$var wire 1 / ww_A $end
$var wire 1 0 ww_B $end
$var wire 1 1 ww_Ci $end
$var wire 1 2 ww_S $end
$var wire 1 3 ww_Cout $end
$var wire 1 4 \B~combout\ $end
$var wire 1 5 \A~combout\ $end
$var wire 1 6 \S~0_combout\ $end
$var wire 1 7 \Ci~combout\ $end
$var wire 1 8 \Cout~0_combout\ $end
$upscope $end
$upscope $end
$enddefinitions $end
#0
$dumpvars
0!
0"
0#
0$
0%
0&
1'
x(
1)
1*
1+
1,
1-
1.
0/
00
01
02
03
04
05
06
07
08
$end
#25000
1!
1"
1/
10
14
15
16
12
1%
#50000
0!
0"
0/
00
04
05
06
02
0%
#75000
1!
1"
1/
10
14
15
16
12
1%
#100000
0!
0"
0/
00
04
05
06
02
0%
#125000
1!
1"
1/
10
14
15
16
12
1%
#150000
0!
0"
0/
00
04
05
06
02
0%
#175000
1!
1"
1/
10
14
15
16
12
1%
#200000
0!
0"
0/
00
04
05
06
02
0%
#225000
1!
1"
1/
10
14
15
16
12
1%
#250000
0!
0"
0/
00
04
05
06
02
0%
#275000
1!
1"
1/
10
14
15
16
12
1%
#300000
0!
0"
0/
00
04
05
06
02
0%
#325000
1!
1"
1/
10
14
15
16
12
1%
#350000
0!
0"
0/
00
04
05
06
02
0%
#375000
1!
1"
1/
10
14
15
16
12
1%
#400000
0!
0"
0/
00
04
05
06
02
0%
#425000
1!
1"
1/
10
14
15
16
12
1%
#450000
0!
0"
0/
00
04
05
06
02
0%
#475000
1!
1"
1/
10
14
15
16
12
1%
#500000
0!
0"
0/
00
04
05
06
02
0%
#525000
1!
1"
1/
10
14
15
16
12
1%
#550000
0!
0"
0/
00
04
05
06
02
0%
#575000
1!
1"
1/
10
14
15
16
12
1%
#600000
0!
0"
0/
00
04
05
06
02
0%
#625000
1!
1"
1/
10
14
15
16
12
1%
#650000
0!
0"
0/
00
04
05
06
02
0%
#675000
1!
1"
1/
10
14
15
16
12
1%
#700000
0!
0"
0/
00
04
05
06
02
0%
#725000
1!
1"
1/
10
14
15
16
12
1%
#750000
0!
0"
0/
00
04
05
06
02
0%
#775000
1!
1"
1/
10
14
15
16
12
1%
#800000
0!
0"
0/
00
04
05
06
02
0%
#825000
1!
1"
1/
10
14
15
16
12
1%
#850000
0!
0"
0/
00
04
05
06
02
0%
#875000
1!
1"
1/
10
14
15
16
12
1%
#900000
0!
0"
0/
00
04
05
06
02
0%
#925000
1!
1"
1/
10
14
15
16
12
1%
#950000
0!
0"
0/
00
04
05
06
02
0%
#975000
1!
1"
1/
10
14
15
16
12
1%
