HA/simulation/qsim/HA.msim.vcd
$comment
	File created using the following command:
		vcd file HA.msim.vcd -direction
$end
$date
	Wed Feb 14 10:57:59 2024
$end
$version
	ModelSim Version 10.5b
$end
$timescale
	1ps
$end

$scope module ha_vhd_vec_tst $end
$var wire 1 ! a $end
$var wire 1 " b $end
$var wire 1 # Cout $end
$var wire 1 $ s $end

$scope module i1 $end
$var wire 1 % gnd $end
$var wire 1 & vcc $end
$var wire 1 ' unknown $end
$var wire 1 ( devoe $end
$var wire 1 ) devclrn $end
$var wire 1 * devpor $end
$var wire 1 + ww_devoe $end
$var wire 1 , ww_devclrn $end
$var wire 1 - ww_devpor $end
$var wire 1 . ww_a $end
$var wire 1 / ww_b $end
$var wire 1 0 ww_s $end
$var wire 1 1 ww_Cout $end
$var wire 1 2 \~QUARTUS_CREATED_ADC1~_CHSEL_bus\ [4] $end
$var wire 1 3 \~QUARTUS_CREATED_ADC1~_CHSEL_bus\ [3] $end
$var wire 1 4 \~QUARTUS_CREATED_ADC1~_CHSEL_bus\ [2] $end
$var wire 1 5 \~QUARTUS_CREATED_ADC1~_CHSEL_bus\ [1] $end
$var wire 1 6 \~QUARTUS_CREATED_ADC1~_CHSEL_bus\ [0] $end
$var wire 1 7 \~QUARTUS_CREATED_ADC2~_CHSEL_bus\ [4] $end
$var wire 1 8 \~QUARTUS_CREATED_ADC2~_CHSEL_bus\ [3] $end
$var wire 1 9 \~QUARTUS_CREATED_ADC2~_CHSEL_bus\ [2] $end
$var wire 1 : \~QUARTUS_CREATED_ADC2~_CHSEL_bus\ [1] $end
$var wire 1 ; \~QUARTUS_CREATED_ADC2~_CHSEL_bus\ [0] $end
$var wire 1 < \~QUARTUS_CREATED_GND~I_combout\ $end
$var wire 1 = \~QUARTUS_CREATED_UNVM~~busy\ $end
$var wire 1 > \~QUARTUS_CREATED_ADC1~~eoc\ $end
$var wire 1 ? \~QUARTUS_CREATED_ADC2~~eoc\ $end
$var wire 1 @ \s~output_o\ $end
$var wire 1 A \Cout~output_o\ $end
$var wire 1 B \a~input_o\ $end
$var wire 1 C \b~input_o\ $end
$var wire 1 D \s~0_combout\ $end
$var wire 1 E \Cout~0_combout\ $end
$upscope $end
$upscope $end
$enddefinitions $end
#0
$dumpvars
0!
0"
0#
0$
0%
1&
x'
1(
1)
1*
1+
1,
1-
0.
0/
00
01
0<
z=
z>
z?
0@
0A
0B
0C
0D
0E
02
03
04
05
06
07
08
09
0:
0;
$end
#50000
1!
1.
1B
1D
1@
10
1$
#100000
0!
1"
0.
1/
1C
0B
#150000
1!
1.
1B
0D
1E
1A
0@
11
00
1#
0$
#200000
0!
0"
0.
0/
0C
0B
0E
0A
01
0#
#250000
1!
1.
1B
1D
1@
10
1$
#300000
0!
1"
0.
1/
1C
0B
#350000
1!
1.
1B
0D
1E
1A
0@
11
00
1#
0$
#400000
0!
0"
0.
0/
0C
0B
0E
0A
01
0#
#450000
1!
1.
1B
1D
1@
10
1$
#500000
0!
1"
0.
1/
1C
0B
#550000
1!
1.
1B
0D
1E
1A
0@
11
00
1#
0$
#600000
0!
0"
0.
0/
0C
0B
0E
0A
01
0#
#650000
1!
1.
1B
1D
1@
10
1$
#700000
0!
1"
0.
1/
1C
0B
#750000
1!
1.
1B
0D
1E
1A
0@
11
00
1#
0$
#800000
0!
0"
0.
0/
0C
0B
0E
0A
01
0#
#850000
1!
1.
1B
1D
1@
10
1$
#900000
0!
1"
0.
1/
1C
0B
#950000
1!
1.
1B
0D
1E
1A
0@
11
00
1#
0$
