MAS1_24B/simulation/qsim/MAS1_24B.msim.vcd
$comment
	File created using the following command:
		vcd file MAS1_24B.msim.vcd -direction
$end
$date
	Fri Apr 12 11:57:03 2024
$end
$version
	ModelSim Version 10.5b
$end
$timescale
	1ps
$end

$scope module mas1_24b_vhd_vec_tst $end
$var wire 1 ! A [23] $end
$var wire 1 " A [22] $end
$var wire 1 # A [21] $end
$var wire 1 $ A [20] $end
$var wire 1 % A [19] $end
$var wire 1 & A [18] $end
$var wire 1 ' A [17] $end
$var wire 1 ( A [16] $end
$var wire 1 ) A [15] $end
$var wire 1 * A [14] $end
$var wire 1 + A [13] $end
$var wire 1 , A [12] $end
$var wire 1 - A [11] $end
$var wire 1 . A [10] $end
$var wire 1 / A [9] $end
$var wire 1 0 A [8] $end
$var wire 1 1 A [7] $end
$var wire 1 2 A [6] $end
$var wire 1 3 A [5] $end
$var wire 1 4 A [4] $end
$var wire 1 5 A [3] $end
$var wire 1 6 A [2] $end
$var wire 1 7 A [1] $end
$var wire 1 8 A [0] $end
$var wire 1 9 Z [23] $end
$var wire 1 : Z [22] $end
$var wire 1 ; Z [21] $end
$var wire 1 < Z [20] $end
$var wire 1 = Z [19] $end
$var wire 1 > Z [18] $end
$var wire 1 ? Z [17] $end
$var wire 1 @ Z [16] $end
$var wire 1 A Z [15] $end
$var wire 1 B Z [14] $end
$var wire 1 C Z [13] $end
$var wire 1 D Z [12] $end
$var wire 1 E Z [11] $end
$var wire 1 F Z [10] $end
$var wire 1 G Z [9] $end
$var wire 1 H Z [8] $end
$var wire 1 I Z [7] $end
$var wire 1 J Z [6] $end
$var wire 1 K Z [5] $end
$var wire 1 L Z [4] $end
$var wire 1 M Z [3] $end
$var wire 1 N Z [2] $end
$var wire 1 O Z [1] $end
$var wire 1 P Z [0] $end

$scope module i1 $end
$var wire 1 Q gnd $end
$var wire 1 R vcc $end
$var wire 1 S unknown $end
$var wire 1 T devoe $end
$var wire 1 U devclrn $end
$var wire 1 V devpor $end
$var wire 1 W ww_devoe $end
$var wire 1 X ww_devclrn $end
$var wire 1 Y ww_devpor $end
$var wire 1 Z ww_A [23] $end
$var wire 1 [ ww_A [22] $end
$var wire 1 \ ww_A [21] $end
$var wire 1 ] ww_A [20] $end
$var wire 1 ^ ww_A [19] $end
$var wire 1 _ ww_A [18] $end
$var wire 1 ` ww_A [17] $end
$var wire 1 a ww_A [16] $end
$var wire 1 b ww_A [15] $end
$var wire 1 c ww_A [14] $end
$var wire 1 d ww_A [13] $end
$var wire 1 e ww_A [12] $end
$var wire 1 f ww_A [11] $end
$var wire 1 g ww_A [10] $end
$var wire 1 h ww_A [9] $end
$var wire 1 i ww_A [8] $end
$var wire 1 j ww_A [7] $end
$var wire 1 k ww_A [6] $end
$var wire 1 l ww_A [5] $end
$var wire 1 m ww_A [4] $end
$var wire 1 n ww_A [3] $end
$var wire 1 o ww_A [2] $end
$var wire 1 p ww_A [1] $end
$var wire 1 q ww_A [0] $end
$var wire 1 r ww_Z [23] $end
$var wire 1 s ww_Z [22] $end
$var wire 1 t ww_Z [21] $end
$var wire 1 u ww_Z [20] $end
$var wire 1 v ww_Z [19] $end
$var wire 1 w ww_Z [18] $end
$var wire 1 x ww_Z [17] $end
$var wire 1 y ww_Z [16] $end
$var wire 1 z ww_Z [15] $end
$var wire 1 { ww_Z [14] $end
$var wire 1 | ww_Z [13] $end
$var wire 1 } ww_Z [12] $end
$var wire 1 ~ ww_Z [11] $end
$var wire 1 !! ww_Z [10] $end
$var wire 1 "! ww_Z [9] $end
$var wire 1 #! ww_Z [8] $end
$var wire 1 $! ww_Z [7] $end
$var wire 1 %! ww_Z [6] $end
$var wire 1 &! ww_Z [5] $end
$var wire 1 '! ww_Z [4] $end
$var wire 1 (! ww_Z [3] $end
$var wire 1 )! ww_Z [2] $end
$var wire 1 *! ww_Z [1] $end
$var wire 1 +! ww_Z [0] $end
$var wire 1 ,! \I1|s~combout\ $end
$var wire 1 -! \I2|s~combout\ $end
$var wire 1 .! \I3|s~combout\ $end
$var wire 1 /! \I2|Cout~combout\ $end
$var wire 1 0! \I4|s~combout\ $end
$var wire 1 1! \I5|s~combout\ $end
$var wire 1 2! \I5|Cout~combout\ $end
$var wire 1 3! \I6|s~combout\ $end
$var wire 1 4! \I7|s~combout\ $end
$var wire 1 5! \I8|s~combout\ $end
$var wire 1 6! \I9|s~combout\ $end
$var wire 1 7! \I7|Cout~combout\ $end
$var wire 1 8! \I10|s~combout\ $end
$var wire 1 9! \I11|s~combout\ $end
$var wire 1 :! \I12|s~combout\ $end
$var wire 1 ;! \I13|s~combout\ $end
$var wire 1 <! \I8|Cout~combout\ $end
$var wire 1 =! \I14|s~combout\ $end
$var wire 1 >! \I11|Cout~combout\ $end
$var wire 1 ?! \I15|s~combout\ $end
$var wire 1 @! \I14|Cout~combout\ $end
$var wire 1 A! \I16|s~combout\ $end
$var wire 1 B! \I17|s~combout\ $end
$var wire 1 C! \I18|s~combout\ $end
$var wire 1 D! \I15|Cout~combout\ $end
$var wire 1 E! \I19|s~combout\ $end
$var wire 1 F! \I20|s~combout\ $end
$var wire 1 G! \I21|s~combout\ $end
$var wire 1 H! \I18|Cout~combout\ $end
$var wire 1 I! \I22|s~combout\ $end
$var wire 1 J! \Z~0_combout\ $end
$var wire 1 K! \A~combout\ [23] $end
$var wire 1 L! \A~combout\ [22] $end
$var wire 1 M! \A~combout\ [21] $end
$var wire 1 N! \A~combout\ [20] $end
$var wire 1 O! \A~combout\ [19] $end
$var wire 1 P! \A~combout\ [18] $end
$var wire 1 Q! \A~combout\ [17] $end
$var wire 1 R! \A~combout\ [16] $end
$var wire 1 S! \A~combout\ [15] $end
$var wire 1 T! \A~combout\ [14] $end
$var wire 1 U! \A~combout\ [13] $end
$var wire 1 V! \A~combout\ [12] $end
$var wire 1 W! \A~combout\ [11] $end
$var wire 1 X! \A~combout\ [10] $end
$var wire 1 Y! \A~combout\ [9] $end
$var wire 1 Z! \A~combout\ [8] $end
$var wire 1 [! \A~combout\ [7] $end
$var wire 1 \! \A~combout\ [6] $end
$var wire 1 ]! \A~combout\ [5] $end
$var wire 1 ^! \A~combout\ [4] $end
$var wire 1 _! \A~combout\ [3] $end
$var wire 1 `! \A~combout\ [2] $end
$var wire 1 a! \A~combout\ [1] $end
$var wire 1 b! \A~combout\ [0] $end
$var wire 1 c! \ALT_INV_A~combout\ [0] $end
$upscope $end
$upscope $end
$enddefinitions $end
#0
$dumpvars
0Q
1R
xS
1T
1U
1V
1W
1X
1Y
0,!
0-!
0.!
0/!
00!
01!
02!
03!
04!
05!
06!
07!
08!
09!
0:!
0;!
0<!
0=!
0>!
0?!
0@!
0A!
0B!
0C!
0D!
0E!
0F!
0G!
0H!
0I!
0J!
0!
0"
0#
0$
0%
0&
0'
0(
0)
0*
0+
0,
0-
0.
0/
00
01
02
03
04
05
06
07
08
0Z
0[
0\
0]
0^
0_
0`
0a
0b
0c
0d
0e
0f
0g
0h
0i
0j
0k
0l
0m
0n
0o
0p
0q
0r
0s
0t
0u
0v
0w
0x
0y
0z
0{
0|
0}
0~
0!!
0"!
0#!
0$!
0%!
0&!
0'!
0(!
0)!
0*!
1+!
0K!
0L!
0M!
0N!
0O!
0P!
0Q!
0R!
0S!
0T!
0U!
0V!
0W!
0X!
0Y!
0Z!
0[!
0\!
0]!
0^!
0_!
0`!
0a!
0b!
1c!
09
0:
0;
0<
0=
0>
0?
0@
0A
0B
0C
0D
0E
0F
0G
0H
0I
0J
0K
0L
0M
0N
0O
1P
$end
#100000
18
1q
1b!
0c!
1,!
0+!
1*!
0P
1O
#200000
08
17
0q
1p
1a!
0b!
1c!
1+!
1P
#300000
18
1q
1b!
0c!
0,!
1-!
0+!
1)!
0*!
0P
0O
1N
#400000
08
07
16
0q
0p
1o
1`!
0a!
0b!
1c!
1+!
1P
#500000
18
1q
1b!
0c!
1,!
0+!
1*!
0P
1O
#600000
08
17
0q
1p
1a!
0b!
1c!
1+!
1P
#700000
18
1q
1b!
0c!
0,!
0-!
1.!
1/!
0+!
1(!
0)!
0*!
0P
0O
0N
1M
#800000
08
07
06
15
0q
0p
0o
1n
1_!
0`!
0a!
0b!
1c!
0/!
10!
1+!
1'!
00!
1P
1L
0'!
0L
#900000
18
1q
1b!
0c!
1,!
0+!
1*!
0P
1O
